<svg xmlns="http://www.w3.org/2000/svg" width="2560.041" height="360.121" viewBox="0 0 2090 294">
  <defs>
    <style>
      .cls-1 {
        fill-rule: evenodd;
      }
    </style>
  </defs>
  <path id="korekcia_a_lestenie_-_BG" data-name="korekcia a lestenie - BG" class="cls-1" d="M515,7382l2499-86,10,294L515,7534V7382Z" transform="translate(-648 -7296)"/>
</svg>
